\relax 
\providecommand\hyper@newdestlabel[2]{}
\providecommand\HyperFirstAtBeginDocument{\AtBeginDocument}
\HyperFirstAtBeginDocument{\ifx\hyper@anchor\@undefined
\global\let\oldcontentsline\contentsline
\gdef\contentsline#1#2#3#4{\oldcontentsline{#1}{#2}{#3}}
\global\let\oldnewlabel\newlabel
\gdef\newlabel#1#2{\newlabelxx{#1}#2}
\gdef\newlabelxx#1#2#3#4#5#6{\oldnewlabel{#1}{{#2}{#3}}}
\AtEndDocument{\ifx\hyper@anchor\@undefined
\let\contentsline\oldcontentsline
\let\newlabel\oldnewlabel
\fi}
\fi}
\global\let\hyper@last\relax 
\gdef\HyperFirstAtBeginDocument#1{#1}
\providecommand\HyField@AuxAddToFields[1]{}
\providecommand\HyField@AuxAddToCoFields[2]{}
\citation{WagerNichols}
\citation{Kao}
\citation{spm}
\citation{Friston1998}
\citation{SAMRI}
\citation{spm}
\citation{Gorgolewski2016}
\bibstyle{abbrv}
\bibdata{./bib}
\bibcite{Friston1998}{\hyperlink {beamerbibFriston1998}{1}}
\bibcite{Gorgolewski2016}{\hyperlink {beamerbibGorgolewski2016}{2}}
\bibcite{SAMRI}{\hyperlink {beamerbibSAMRI}{3}}
\bibcite{Kao}{\hyperlink {beamerbibKao}{4}}
\bibcite{spm}{\hyperlink {beamerbibspm}{5}}
\bibcite{WagerNichols}{\hyperlink {beamerbibWagerNichols}{6}}
\@writefile{toc}{\beamer@endinputifotherversion {3.36pt}}
\@writefile{nav}{\beamer@endinputifotherversion {3.36pt}}
\providecommand*\caption@xref[2]{\@setref\relax\@undefined{#1}}
\newlabel{fig:syntheticdata}{{1}{1}{Computation of synthetic data for the time course of one voxel. extit {Left}: Time course of one voxel (noise) extit {Middle}: Assumed activation (convolution of sequence and HRF) extit {Right}: Sum of noise and activation (synthetic time course).\relax }{Doc-Start}{}}
\@writefile{snm}{\beamer@slide {fig:syntheticdata}{1}}
\newlabel{fig:mask}{{2}{1}{Region of interest used for the synthetic data. It is the cortex of a mouse brain.\relax }{Doc-Start}{}}
\@writefile{snm}{\beamer@slide {fig:mask}{1}}
\newlabel{fig:correlation}{{3}{1}{Correlation of theoretical fitness measure and sensitivity index of synthetic data.\relax }{Doc-Start}{}}
\@writefile{snm}{\beamer@slide {fig:correlation}{1}}
\newlabel{fig:tvalues}{{4}{1}{Comparison of the t-value distributions of synthetic data generated using the original sequence and the optimized sequence. The green histogram are the values in the region of interest and blue are the remaining voxels.\relax }{Doc-Start}{}}
\@writefile{snm}{\beamer@slide {fig:tvalues}{1}}
\newlabel{fig:3dplot}{{5}{1}{Fitness for different stimulus duration and different resting periods (gaps) in between. The black dots show the optimal resting interval for a given stimulus block length.\relax }{Doc-Start}{}}
\@writefile{snm}{\beamer@slide {fig:3dplot}{1}}
\newlabel{fig:sequence}{{6}{1}{Optimized block style sequence.\relax }{Doc-Start}{}}
\@writefile{snm}{\beamer@slide {fig:sequence}{1}}
\@writefile{nav}{\headcommand {\slideentry {0}{0}{1}{1/1}{}{0}}}
\@writefile{nav}{\headcommand {\beamer@framepages {1}{1}}}
\@writefile{nav}{\headcommand {\beamer@partpages {1}{1}}}
\@writefile{nav}{\headcommand {\beamer@subsectionpages {1}{1}}}
\@writefile{nav}{\headcommand {\beamer@sectionpages {1}{1}}}
\@writefile{nav}{\headcommand {\beamer@documentpages {1}}}
\@writefile{nav}{\headcommand {\def \inserttotalframenumber {1}}}
